{
    "data": [
        {
            "name": "Company A",
            "tier": "T1",
            "margin": "0.5"
        },
        {
            "name": "Company B",
            "tier": "T2",
            "margin": "0.6"
        },
        {
            "name": "Company C",
            "tier": "T2",
            "margin": "0.7"
        }
    ],
    "totalCount": 3,
    "success": true
}